%YAML 1.1
%TAG !u! tag:unity3d.com,2011:
--- !u!74 &7400000
AnimationClip:
  m_ObjectHideFlags: 0
  m_CorrespondingSourceObject: {fileID: 0}
  m_PrefabInstance: {fileID: 0}
  m_PrefabAsset: {fileID: 0}
  m_Name: protagonist-death
  serializedVersion: 6
  m_Legacy: 0
  m_Compressed: 0
  m_UseHighQualityCurve: 1
  m_RotationCurves: []
  m_CompressedRotationCurves: []
  m_EulerCurves: []
  m_PositionCurves: []
  m_ScaleCurves: []
  m_FloatCurves: []
  m_PPtrCurves:
  - curve:
    - time: 0
      value: {fileID: -5899277742276312803, guid: 8789309b6fe835a4697cfa0fc8a0d3e8, type: 3}
    - time: 0.083333336
      value: {fileID: -3256921837310110240, guid: 8789309b6fe835a4697cfa0fc8a0d3e8, type: 3}
    - time: 0.16666667
      value: {fileID: -4097666746938428193, guid: 8789309b6fe835a4697cfa0fc8a0d3e8, type: 3}
    - time: 0.25
      value: {fileID: -7118898628741234164, guid: 8789309b6fe835a4697cfa0fc8a0d3e8, type: 3}
    - time: 0.33333334
      value: {fileID: 6877542928903855125, guid: 8789309b6fe835a4697cfa0fc8a0d3e8, type: 3}
    - time: 0.41666666
      value: {fileID: 3899155549322057089, guid: 8789309b6fe835a4697cfa0fc8a0d3e8, type: 3}
    - time: 0.5
      value: {fileID: 1903210609897055916, guid: 8789309b6fe835a4697cfa0fc8a0d3e8, type: 3}
    - time: 0.5833333
      value: {fileID: 5160531981624314146, guid: 8789309b6fe835a4697cfa0fc8a0d3e8, type: 3}
    - time: 0.6666667
      value: {fileID: 1068572837403136453, guid: 8789309b6fe835a4697cfa0fc8a0d3e8, type: 3}
    - time: 0.75
      value: {fileID: 1771765500306207607, guid: 8789309b6fe835a4697cfa0fc8a0d3e8, type: 3}
    - time: 0.8333333
      value: {fileID: -4200543999042652849, guid: 8789309b6fe835a4697cfa0fc8a0d3e8, type: 3}
    - time: 0.9166667
      value: {fileID: -2694278457484760088, guid: 8789309b6fe835a4697cfa0fc8a0d3e8, type: 3}
    - time: 1
      value: {fileID: 8730067545063634984, guid: 8789309b6fe835a4697cfa0fc8a0d3e8, type: 3}
    - time: 1.0833334
      value: {fileID: 4185704751840039156, guid: 8789309b6fe835a4697cfa0fc8a0d3e8, type: 3}
    - time: 1.1666666
      value: {fileID: -5513926672973885474, guid: 8789309b6fe835a4697cfa0fc8a0d3e8, type: 3}
    - time: 1.25
      value: {fileID: -6654349166792522142, guid: 8789309b6fe835a4697cfa0fc8a0d3e8, type: 3}
    - time: 1.3333334
      value: {fileID: 4920617527746202065, guid: 8789309b6fe835a4697cfa0fc8a0d3e8, type: 3}
    - time: 1.4166666
      value: {fileID: -1100593870560680548, guid: 8789309b6fe835a4697cfa0fc8a0d3e8, type: 3}
    - time: 1.5
      value: {fileID: -404907562327933880, guid: 8789309b6fe835a4697cfa0fc8a0d3e8, type: 3}
    - time: 1.5833334
      value: {fileID: 7091979290259511896, guid: 8789309b6fe835a4697cfa0fc8a0d3e8, type: 3}
    - time: 1.6666666
      value: {fileID: -2725213829076098077, guid: 8789309b6fe835a4697cfa0fc8a0d3e8, type: 3}
    - time: 1.75
      value: {fileID: 8430668436776120474, guid: 8789309b6fe835a4697cfa0fc8a0d3e8, type: 3}
    attribute: m_Sprite
    path: 
    classID: 212
    script: {fileID: 0}
  m_SampleRate: 12
  m_WrapMode: 0
  m_Bounds:
    m_Center: {x: 0, y: 0, z: 0}
    m_Extent: {x: 0, y: 0, z: 0}
  m_ClipBindingConstant:
    genericBindings:
    - serializedVersion: 2
      path: 0
      attribute: 0
      script: {fileID: 0}
      typeID: 212
      customType: 23
      isPPtrCurve: 1
    pptrCurveMapping:
    - {fileID: -5899277742276312803, guid: 8789309b6fe835a4697cfa0fc8a0d3e8, type: 3}
    - {fileID: -3256921837310110240, guid: 8789309b6fe835a4697cfa0fc8a0d3e8, type: 3}
    - {fileID: -4097666746938428193, guid: 8789309b6fe835a4697cfa0fc8a0d3e8, type: 3}
    - {fileID: -7118898628741234164, guid: 8789309b6fe835a4697cfa0fc8a0d3e8, type: 3}
    - {fileID: 6877542928903855125, guid: 8789309b6fe835a4697cfa0fc8a0d3e8, type: 3}
    - {fileID: 3899155549322057089, guid: 8789309b6fe835a4697cfa0fc8a0d3e8, type: 3}
    - {fileID: 1903210609897055916, guid: 8789309b6fe835a4697cfa0fc8a0d3e8, type: 3}
    - {fileID: 5160531981624314146, guid: 8789309b6fe835a4697cfa0fc8a0d3e8, type: 3}
    - {fileID: 1068572837403136453, guid: 8789309b6fe835a4697cfa0fc8a0d3e8, type: 3}
    - {fileID: 1771765500306207607, guid: 8789309b6fe835a4697cfa0fc8a0d3e8, type: 3}
    - {fileID: -4200543999042652849, guid: 8789309b6fe835a4697cfa0fc8a0d3e8, type: 3}
    - {fileID: -2694278457484760088, guid: 8789309b6fe835a4697cfa0fc8a0d3e8, type: 3}
    - {fileID: 8730067545063634984, guid: 8789309b6fe835a4697cfa0fc8a0d3e8, type: 3}
    - {fileID: 4185704751840039156, guid: 8789309b6fe835a4697cfa0fc8a0d3e8, type: 3}
    - {fileID: -5513926672973885474, guid: 8789309b6fe835a4697cfa0fc8a0d3e8, type: 3}
    - {fileID: -6654349166792522142, guid: 8789309b6fe835a4697cfa0fc8a0d3e8, type: 3}
    - {fileID: 4920617527746202065, guid: 8789309b6fe835a4697cfa0fc8a0d3e8, type: 3}
    - {fileID: -1100593870560680548, guid: 8789309b6fe835a4697cfa0fc8a0d3e8, type: 3}
    - {fileID: -404907562327933880, guid: 8789309b6fe835a4697cfa0fc8a0d3e8, type: 3}
    - {fileID: 7091979290259511896, guid: 8789309b6fe835a4697cfa0fc8a0d3e8, type: 3}
    - {fileID: -2725213829076098077, guid: 8789309b6fe835a4697cfa0fc8a0d3e8, type: 3}
    - {fileID: 8430668436776120474, guid: 8789309b6fe835a4697cfa0fc8a0d3e8, type: 3}
  m_AnimationClipSettings:
    serializedVersion: 2
    m_AdditiveReferencePoseClip: {fileID: 0}
    m_AdditiveReferencePoseTime: 0
    m_StartTime: 0
    m_StopTime: 1.8333334
    m_OrientationOffsetY: 0
    m_Level: 0
    m_CycleOffset: 0
    m_HasAdditiveReferencePose: 0
    m_LoopTime: 0
    m_LoopBlend: 0
    m_LoopBlendOrientation: 0
    m_LoopBlendPositionY: 0
    m_LoopBlendPositionXZ: 0
    m_KeepOriginalOrientation: 0
    m_KeepOriginalPositionY: 1
    m_KeepOriginalPositionXZ: 0
    m_HeightFromFeet: 0
    m_Mirror: 0
  m_EditorCurves: []
  m_EulerEditorCurves: []
  m_HasGenericRootTransform: 0
  m_HasMotionFloatCurves: 0
  m_Events: []
